<svg width="141" height="33" viewBox="0 0 141 33" fill="none" xmlns="http://www.w3.org/2000/svg">
<path d="M129.522 9.99813V7.88341C129.517 7.13198 129.653 6.38629 129.922 5.68484C130.233 5.01273 130.73 4.44365 131.354 4.04482C131.978 3.64599 132.703 3.43405 133.444 3.43405C134.184 3.43405 134.909 3.64599 135.533 4.04482C136.157 4.44365 136.654 5.01273 136.965 5.68484C137.235 6.38629 137.371 7.13198 137.366 7.88341V9.99813H129.522ZM140.435 6.00623C140.093 4.40725 139.213 2.97408 137.941 1.94595C136.669 0.917816 135.084 0.356934 133.448 0.356934C131.813 0.356934 130.227 0.917816 128.956 1.94595C127.684 2.97408 126.804 4.40725 126.461 6.00623C126.305 6.89826 126.227 7.80225 126.229 8.70786V21.3124H129.531V12.9746H137.366V21.3124H140.668V8.69389C140.67 7.78828 140.592 6.88428 140.435 5.99226V6.00623Z" fill="black"/>
<path d="M81.4689 10.9768C81.4689 14.6333 79.983 16.8551 77.7891 17.7821C76.7621 18.1653 75.6709 18.3472 74.5751 18.3177H72.8516V3.63577H74.5891C75.6849 3.60635 76.7761 3.78822 77.8031 4.17144C79.997 5.10304 81.4829 7.32024 81.4829 10.9768H81.4689ZM79.2517 1.36733C77.6904 0.851107 76.0513 0.609968 74.4074 0.65466H69.5352V21.2988H74.4074C76.0513 21.3435 77.6904 21.1024 79.2517 20.5862C83.0247 19.1515 84.9391 15.7093 84.9391 10.9768C84.9391 6.24424 83.0247 2.80199 79.2517 1.36733Z" fill="black"/>
<path d="M121.729 0.654297H118.096L111.798 13.9482L105.5 0.654297H101.867L111.533 21.2985H112.068L121.729 0.654297Z" fill="black"/>
<path d="M51.1002 18.6577C46.8568 18.6577 43.8943 15.2201 43.8943 10.9767C43.8943 6.73328 46.8568 3.29569 51.1002 3.29569C55.3437 3.29569 58.3061 6.73328 58.3061 10.9767C58.3061 15.2201 55.3437 18.6577 51.1002 18.6577ZM51.1002 0.323889C48.9943 0.328493 46.937 0.95718 45.1882 2.13052C43.4394 3.30386 42.0777 4.96921 41.2749 6.91616C40.4722 8.8631 40.2646 11.0043 40.6782 13.0692C41.0919 15.1341 42.1083 17.0301 43.5991 18.5176C45.0898 20.0051 46.988 21.0173 49.0538 21.4265C51.1196 21.8357 53.2603 21.6233 55.2055 20.8164C57.1507 20.0094 58.8131 18.644 59.9826 16.8927C61.1521 15.1413 61.7763 13.0826 61.7763 10.9767C61.7939 9.57092 61.5296 8.17586 60.999 6.87393C60.4684 5.572 59.6823 4.3896 58.6871 3.39657C57.6919 2.40354 56.5078 1.62001 55.2047 1.09226C53.9016 0.564512 52.506 0.303241 51.1002 0.323889Z" fill="black"/>
<path d="M29.1699 11.9781C29.8599 11.7346 30.4936 11.3544 31.0331 10.8601C31.6015 10.315 32.0526 9.65952 32.3585 8.93382C32.6645 8.20812 32.819 7.42755 32.8124 6.64001C32.859 5.78543 32.7308 4.93033 32.4358 4.12693C32.1408 3.32353 31.6852 2.58869 31.0967 1.96728C30.5082 1.34587 29.7992 0.850928 29.013 0.512687C28.2269 0.174445 27.38 0 26.5242 0C25.6683 0 24.8214 0.174445 24.0353 0.512687C23.2491 0.850928 22.5401 1.34587 21.9516 1.96728C21.3631 2.58869 20.9075 3.32353 20.6125 4.12693C20.3175 4.93033 20.1893 5.78543 20.2359 6.64001V21.2987H23.5384V6.64001C23.5384 4.57186 24.8706 3.29558 26.5102 3.29558C28.1498 3.29558 29.4866 4.57186 29.4866 6.64001C29.5116 7.23501 29.3791 7.82606 29.1027 8.35354C28.8263 8.88102 28.4157 9.32629 27.9122 9.64441C27.4065 9.90505 26.8408 10.0272 26.2726 9.99842H24.3629V10.3944L31.5501 21.3127H35.3464L29.1699 11.9967V11.9781Z" fill="black"/>
<path d="M9.2944 6.6403C9.3198 7.23537 9.18758 7.8266 8.91112 8.35417C8.63466 8.88174 8.22376 9.32693 7.72 9.6447C7.21078 9.90416 6.64159 10.0231 6.07107 9.98939H3.30423V6.6403C3.30423 4.57215 4.64573 3.29587 6.29932 3.29587C7.9529 3.29587 9.2944 4.57215 9.2944 6.6403ZM6.29932 0.324071C5.466 0.306854 4.63783 0.458603 3.86476 0.770167C3.09169 1.08173 2.38974 1.54666 1.80125 2.13689C1.21275 2.72713 0.749903 3.43046 0.440624 4.20444C0.131345 4.97843 -0.0179579 5.80704 0.00172049 6.6403V21.299H3.30423V12.9612H6.29932C7.12755 12.96 7.94744 12.7956 8.71216 12.4775C9.47688 12.1595 10.1715 11.6939 10.7562 11.1073C11.341 10.5208 11.8046 9.82488 12.1204 9.05922C12.4362 8.29356 12.5981 7.4732 12.5969 6.64496C12.6166 5.8117 12.4673 4.98309 12.158 4.2091C11.8487 3.43511 11.3859 2.73179 10.7974 2.14155C10.2089 1.55131 9.50694 1.08639 8.73387 0.77483C7.9608 0.463266 7.13263 0.311517 6.29932 0.328733V0.324071Z" fill="black"/>
<path d="M92.4961 0.654297V21.2985H95.7986V0.654297H92.4961Z" fill="black"/>
<path d="M27.0036 28.1922C26.5276 28.1848 26.0602 28.3195 25.6611 28.5791C25.262 28.8387 24.9493 29.2113 24.7631 29.6495C24.5768 30.0876 24.5254 30.5714 24.6155 31.0389C24.7055 31.5064 24.9329 31.9364 25.2685 32.274C25.6042 32.6117 26.0329 32.8416 26.4998 32.9344C26.9668 33.0272 27.4508 32.9787 27.89 32.795C28.3293 32.6113 28.7038 32.3009 28.9657 31.9033C29.2277 31.5058 29.3651 31.0392 29.3606 30.5631C29.3662 30.2514 29.3092 29.9417 29.1929 29.6524C29.0766 29.3631 28.9035 29.1001 28.6837 28.879C28.4639 28.6579 28.2019 28.4832 27.9133 28.3652C27.6247 28.2472 27.3154 28.1884 27.0036 28.1922ZM26.9524 32.2586C26.7363 32.2562 26.5228 32.2109 26.3244 32.1252C26.126 32.0396 25.9466 31.9154 25.7966 31.7598C25.6467 31.6042 25.5291 31.4203 25.4509 31.2188C25.3726 31.0174 25.3352 30.8024 25.3407 30.5864C25.3289 30.3671 25.362 30.1478 25.4377 29.9417C25.5135 29.7357 25.6305 29.5472 25.7815 29.3878C25.9326 29.2285 26.1145 29.1015 26.3162 29.0148C26.5179 28.9281 26.7352 28.8833 26.9547 28.8833C27.1743 28.8833 27.3915 28.9281 27.5932 29.0148C27.7949 29.1015 27.9769 29.2285 28.1279 29.3878C28.2789 29.5472 28.3959 29.7357 28.4717 29.9417C28.5475 30.1478 28.5805 30.3671 28.5687 30.5864C28.5782 30.8038 28.5433 31.0209 28.4662 31.2244C28.389 31.4278 28.2713 31.6135 28.12 31.7699C27.9688 31.9264 27.7872 32.0504 27.5865 32.1345C27.3857 32.2185 27.17 32.2607 26.9524 32.2586Z" fill="black"/>
<path d="M42.831 32.2586L41.7596 30.8845C41.8502 30.8499 41.9362 30.8046 42.0158 30.7494C42.2188 30.6279 42.386 30.4549 42.5005 30.2479C42.615 30.041 42.6728 29.8074 42.668 29.5709C42.6792 29.3053 42.6034 29.0432 42.4521 28.8246C42.3007 28.606 42.0821 28.4428 41.8295 28.3599C41.5519 28.2677 41.2602 28.2251 40.9678 28.2341H40.5672H40.4368H40.3157H40.1992V32.8921H40.8374H40.9538V31.0289C41.5174 31.7555 41.8854 32.2586 42.2022 32.6685L42.3792 32.906H43.0872H43.2036V32.743L43.1757 32.7104C43.157 32.6731 42.9707 32.4402 42.831 32.2586ZM41.8994 29.6082C41.9062 29.7536 41.8678 29.8976 41.7894 30.0202C41.7109 30.1428 41.5964 30.2381 41.4615 30.2929C41.3027 30.355 41.1336 30.3867 40.9631 30.3861V28.9328H41.0749C41.592 28.9328 41.8994 29.1843 41.8994 29.6035V29.6082Z" fill="black"/>
<path d="M56.5168 30.6747V32.2212C56.3492 32.2506 56.1792 32.2646 56.009 32.2631C55.7833 32.2779 55.5571 32.2447 55.3451 32.1657C55.1331 32.0867 54.9403 31.9638 54.7792 31.805C54.6182 31.6461 54.4926 31.455 54.4107 31.2441C54.3289 31.0333 54.2926 30.8075 54.3042 30.5816C54.3042 29.5521 55.0216 28.8907 56.1348 28.8907C56.3634 28.893 56.5912 28.918 56.8149 28.9652L57.0478 29.0351H57.2201V28.7603C57.2201 28.6625 57.2201 28.56 57.2201 28.4203V28.3224L57.127 28.2991C56.9919 28.2619 56.8289 28.2339 56.6612 28.206C56.4696 28.1813 56.2767 28.1673 56.0836 28.1641C54.5558 28.1641 53.4937 29.1422 53.4937 30.5443C53.4818 30.871 53.5388 31.1965 53.6609 31.4997C53.7831 31.8029 53.9677 32.0769 54.2028 32.3041C54.4378 32.5312 54.718 32.7064 55.0252 32.8181C55.3324 32.9298 55.6597 32.9756 55.9858 32.9525C56.4017 32.9604 56.816 32.8974 57.2108 32.7662L57.29 32.7429V30.6375H56.6332L56.5168 30.6747Z" fill="black"/>
<path d="M71.0506 30.7632L69.9839 28.1641H69.7603L68.661 30.7492C68.1393 31.9883 67.9344 32.4587 67.8552 32.6124L67.8086 32.7242V32.8873H68.4793H68.5958V32.822L68.6331 32.7289C68.6936 32.5798 68.824 32.2631 69.0709 31.6808H70.5894L70.6406 31.8019L71.0506 32.8081V32.9245H71.7586H71.875V32.7755C71.8517 32.7056 71.7865 32.5426 71.0506 30.7632ZM70.3286 30.9915H69.3411C69.6252 30.2974 69.7649 29.9527 69.8441 29.7431C69.9233 29.962 70.0584 30.3114 70.3286 30.9915Z" fill="black"/>
<path d="M85.4858 28.2625V30.2049C85.4858 30.8291 85.4858 31.1365 85.4858 31.3508L85.1411 30.9502L85.0246 30.8197C84.8476 30.6195 84.6194 30.3539 84.3166 30.0046L82.7608 28.2253L82.7282 28.188H82.5V32.9112H83.1009H83.2173V29.8323C83.3664 30.0139 83.4968 30.1583 83.6552 30.3353L83.725 30.4098L85.9376 32.9391L85.9749 32.9764H86.2078V28.2485H85.5836L85.4858 28.2625Z" fill="black"/>
<path d="M97.3125 28.2713V32.9107H97.9646L98.0811 32.9014V28.248H97.4289L97.3125 28.2713Z" fill="black"/>
<path d="M112.381 28.2808C112.283 28.2575 112.12 28.2295 111.98 28.2109C111.825 28.2012 111.669 28.2012 111.514 28.2109C109.958 28.2109 108.92 29.1425 108.92 30.5818C108.907 30.908 108.963 31.2332 109.085 31.5363C109.206 31.8393 109.39 32.1135 109.624 32.341C109.858 32.5685 110.137 32.7443 110.444 32.8569C110.75 32.9695 111.077 33.0164 111.402 32.9946C111.589 32.9937 111.776 32.9812 111.961 32.9574C112.1 32.9359 112.237 32.9048 112.371 32.8642L112.446 32.8223V32.6406C112.446 32.5149 112.446 32.3565 112.446 32.2494V32.1376H112.334H112.25C112.186 32.1602 112.121 32.1789 112.055 32.1935C111.872 32.2276 111.686 32.2432 111.5 32.2401C111.273 32.2544 111.045 32.2212 110.832 32.1425C110.618 32.0639 110.423 31.9415 110.26 31.7832C110.096 31.6249 109.968 31.4342 109.882 31.2233C109.796 31.0125 109.756 30.786 109.763 30.5585C109.763 29.5244 110.452 28.8816 111.565 28.8816C111.739 28.8809 111.912 28.8965 112.082 28.9282C112.171 28.9282 112.245 28.9608 112.32 28.9795H112.446V28.8723C112.446 28.7745 112.446 28.6534 112.446 28.537V28.2808H112.381Z" fill="black"/>
</svg>
